Streaming data into the demultiplexer • posDemux
…
Verifying results

We finally load the files we wrote to in order to verify that they
contain what we desire. We load the barcode table:

readr::read_tsv(custom_output_table, show_col_types = FALSE)
#> # A tibble: 51,906 × 4
#>    read   bc3    bc2    bc1   
#>    <chr>  <chr>  <chr>  <chr> 
#>  1 seq_1  bc3_57 bc2_51 bc1_94
#>  2 seq_2  bc3_72 bc2_94 bc1_95
#>  3 seq_4  bc3_85 bc2_81 bc1_17
#>  4 seq_5  bc3_49 bc2_64 bc1_77
#>  5 seq_6  bc3_3  bc2_45 bc1_33
#>  6 seq_7  bc3_17 bc2_57 bc1_71
#>  7 seq_8  bc3_69 bc2_65 bc1_49
#>  8 seq_9  bc3_38 bc2_87 bc1_83
#>  9 seq_10 bc3_76 bc2_36 bc1_85
#> 10 seq_11 bc3_15 bc2_84 bc1_16
#> # ℹ 51,896 more rows
…
